Mekhala Kumar - Topic Modelling based on Gender Corpora in Sports News
…
Interpretation of the models

LDA models

Topic models for women’s corpora

dfm_women <- dfm_remove(dfm_women, c("olympics","olympic","india","indian","tokyo","sports","#tokyo2020","2020","2021","india's","games","game","match","will","day"), verbose = TRUE)

removed 15 features

tidy_w<-tidy(dfm_women)
tidy_w

# A tibble: 49,119 × 3
   document term     count
   <chr>    <chr>    <dbl>
 1 text1    solitary     1
 2 text50   solitary     1
 3 text59   solitary     1
 4 text146  solitary     1
 5 text1    two-day      1
 6 text85   two-day      1
 7 text86   two-day      1
 8 text224  two-day      1
 9 text1    fixture      1
10 text1    great        1
# ℹ 49,109 more rows
…
Topic 9- Rewards offered to the hockey teams

Most of the topics in the women’s sports corpora are about the Indian women athletes who won medals at the Olympics or were in the final rounds. Other than this, there was an incident where casteist remarks about Indian women hockey players were made after the women’s team had lost a semifinal which is reflected in topic 6. Finally, when it came to international athletes and events, the only topic found was about Simon Biles and her decision to leave the Olympics early due to mental health reasons.

lda_women<- LDA(women_dtm, k = 9, control = list(seed = 2345))
lda_women

A LDA_VEM topic model with 9 topics.

#extracting per-topic-per-word probabilities
topics_women <- tidy(lda_women, matrix = "beta")
topics_women

# A tibble: 98,424 × 3
   topic term          beta
   <int> <chr>        <dbl>
 1     1 solitary 3.86e-277
 2     2 solitary 1.27e-  4
 3     3 solitary 3.19e-276
 4     4 solitary 3.49e-277
 5     5 solitary 1.80e-278
 6     6 solitary 2.53e-279
 7     7 solitary 1.32e-277
 8     8 solitary 4.64e-  4
 9     9 solitary 1.04e-268
10     1 two-day  7.05e-274
# ℹ 98,414 more rows
…
#ggplotly(new)

Topic models for men’s corpora

dfm_men <- dfm_remove(dfm_men, c("olympics","olympic","india","indian","tokyo","sports","#tokyo2020","2020","2021","india's","games","game","match","will","day"), verbose = TRUE)

removed 15 features

tidy_m<-tidy(dfm_men)
tidy_m

# A tibble: 28,758 × 3
   document term         count
   <chr>    <chr>        <dbl>
 1 text1    41-year-long     1
 2 text49   41-year-long     1
 3 text1    wait             1
 4 text34   wait             1
 5 text49   wait             2
 6 text52   wait             2
 7 text53   wait             4
 8 text55   wait             1
 9 text63   wait             1
10 text67   wait             1
# ℹ 28,748 more rows
…
Topic 7- Many of the medal winners- PV Sindhu: Bronze medal in Badminton, Bajrang Punia: Bronze medal in Wrestling, Neeraj Chopra: Gold medal in Javelin throw, Ravi Kumar Dahiya: Bronze medal in Wrestling

Most of the topics are regarding the men’s hockey team’s victory, including the details of the match and people’s reaction to the same. Other people discussed in the corpora as well are medallists.This suggests that more than the gender aspect, perhaps the Indian newspapers focused on the athletes who achieved victories. Moreover, even though this was the men’s corpora, the female Badminton player PV Sindhu was among the top terms in topic 7. This shows that the tags present in the metadata were not completely accurate.

lda_men<- LDA(men_dtm, k = 7, control = list(seed = 2345))
lda_men

A LDA_VEM topic model with 7 topics.

#extracting per-topic-per-word probabilities
topics_men <- tidy(lda_men, matrix = "beta")
topics_men

# A tibble: 51,583 × 3
   topic term              beta
   <int> <chr>            <dbl>
 1     1 41-year-long 1.02e- 73
 2     2 41-year-long 1.41e- 73
 3     3 41-year-long 1.02e- 73
 4     4 41-year-long 1.16e- 73
 5     5 41-year-long 1.77e-  4
 6     6 41-year-long 1.22e-  4
 7     7 41-year-long 4.00e-218
 8     1 wait         2.26e- 73
 9     2 wait         3.72e- 44
10     3 wait         1.75e-  4
# ℹ 51,573 more rows
…
#ggplotly(new2)

Topic models for corpora with both men and women

dfm_both <- dfm_remove(dfm_both, c("olympics","olympic","india","indian","tokyo","sports","#tokyo2020","2020","2021","india's"), verbose = TRUE)

removed 10 features

tidy_b<-tidy(dfm_both)
tidy_b

# A tibble: 25,265 × 3
   document term   count
   <chr>    <chr>  <dbl>
 1 text1    enters     1
 2 text1    fifth      1
 3 text4    fifth      1
 4 text69   fifth      1
 5 text88   fifth      3
 6 text91   fifth      1
 7 text134  fifth      1
 8 text1    day        2
 9 text2    day        4
10 text3    day        3
# ℹ 25,255 more rows
…
Topic 8- Badminton and badminton player PV Sindhu

There is not much difference seen in this corpora when compared to the other two. Aspects of hockey remain to be common across multiple topics. The other prominent sports players that stood out in this corpora were PV Sindhu (female badminton player) and Neeraj Chopra (male track and field athlete) who won the bronze and gold medals respectively.

lda_both<- LDA(both_dtm, k = 8, control = list(seed = 2345))
lda_both

A LDA_VEM topic model with 8 topics.

#extracting per-topic-per-word probabilities
topics_both <- tidy(lda_both, matrix = "beta")
topics_both

# A tibble: 58,800 × 3
   topic term        beta
   <int> <chr>      <dbl>
 1     1 enters 4.72e- 12
 2     2 enters 1.21e-214
 3     3 enters 9.35e-215
 4     4 enters 1.66e-213
 5     5 enters 1.27e-215
 6     6 enters 3.25e-212
 7     7 enters 2.11e-213
 8     8 enters 1.89e-  4
 9     1 fifth  8.47e- 20
10     2 fifth  9.62e-130
# ℹ 58,790 more rows
…
