Mekhala Kumar - Route to Happiness: Unravelling the Link between Transportation and Quality of Life
…
Warning: Unknown or uninitialised column: `zipcode`.

[1] "NULL"

typeof(zip$zipcode)

[1] "character"

publictransit%>%distinct(ZipCode)

# A tibble: 771 × 1
   ZipCode
     <dbl>
 1   77447
 2   87020
 3   96052
 4   76571
 5   63125
 6   59643
 7   45327
 8   81401
 9   76689
10    3076
# ℹ 761 more rows
…
