Mekhala Kumar - Migration Networks
…
Data Cleaning

Many of the columns contain aggregate values in addition to individual values. For example, it contains the number of people who migrated from each state as well the total people who migrated across all states in India. To avoid the numbers being counted twice, I removed the aggregate values. Moreover, since this is a study of internal migration, I removed observations which were about international migrants.

Code

#area
mig_india %>% 
  count(area)

# A tibble: 36 × 2
   area                                       n
   <chr>                                  <int>
 1 INDIA                                   1875
 2 State - ANDAMAN & NICOBAR ISLANDS (35)  1875
 3 State - ANDHRA PRADESH (28)             1875
 4 State - ARUNACHAL PRADESH (12)          1875
 5 State - ASSAM (18)                      1875
 6 State - BIHAR (10)                      1875
 7 State - CHANDIGARH (04)                 1875
 8 State - CHHATTISGARH (22)               1875
 9 State - DADRA & NAGAR HAVELI (26)       1875
10 State - DAMAN & DIU (25)                1875
# ℹ 26 more rows
…
Code

#last_Res
mig_india %>% 
  count(last_res)

# A tibble: 45 × 2
   last_res                           n
   <chr>                          <int>
 1 Andaman & Nicobar Islands       1620
 2 Andhra Pradesh                  1620
 3 Arunachal Pradesh               1620
 4 Assam                           1620
 5 Bihar                           1620
 6 Chandigarh                      1620
 7 Chhattisgarh                    1620
 8 Countries in Asia beyond India   540
 9 Dadra & Nagar Haveli            1620
10 Daman & Diu                     1620
# ℹ 35 more rows
…
Code

mig_india<-mig_india%>%
  filter(!str_detect(area,"INDIA"))%>%
  filter(str_detect(res,"Total"))%>%
  filter(str_detect(res_time,"All durations of residence"))%>%
  filter(str_detect(last_res_type,"Total"))%>%
  filter(!(last_res=="Elsewhere in the district of enumeration"|last_res=="In other districts of the state of enumeration"|last_res=="Last residence outside India"|last_res=="Last residence within India"|last_res=="States in India beyond the state of enumeration"|last_res=="Within the state of enumeration but outside the place of enumeration"|last_res=="Total"|last_res=="Countries in Asia beyond India"|last_res=="Other Countries"|last_res=="Unclassifiable"))
  
#area
mig_india %>% 
  count(area)

# A tibble: 35 × 2
   area                                       n
   <chr>                                  <int>
 1 State - ANDAMAN & NICOBAR ISLANDS (35)    35
 2 State - ANDHRA PRADESH (28)               35
 3 State - ARUNACHAL PRADESH (12)            35
 4 State - ASSAM (18)                        35
 5 State - BIHAR (10)                        35
 6 State - CHANDIGARH (04)                   35
 7 State - CHHATTISGARH (22)                 35
 8 State - DADRA & NAGAR HAVELI (26)         35
 9 State - DAMAN & DIU (25)                  35
10 State - GOA (30)                          35
# ℹ 25 more rows
…
# A tibble: 1 × 2
  res_time                       n
  <chr>                      <int>
1 All durations of residence  1225

Code

#last_Res
mig_india %>% 
  count(last_res)

# A tibble: 35 × 2
   last_res                      n
   <chr>                     <int>
 1 Andaman & Nicobar Islands    35
 2 Andhra Pradesh               35
 3 Arunachal Pradesh            35
 4 Assam                        35
 5 Bihar                        35
 6 Chandigarh                   35
 7 Chhattisgarh                 35
 8 Dadra & Nagar Haveli         35
 9 Daman & Diu                  35
10 Goa                          35
# ℹ 25 more rows
…
# A tibble: 1 × 2
  last_res_type     n
  <chr>         <int>
1 Total          1225

This step was done to ensure that both the from and to columns in the edgelist would have observations in the same format.

Code

mig_india%>%select(area)%>%distinct()

# A tibble: 35 × 1
   area                         
   <chr>                        
 1 State - JAMMU & KASHMIR (01) 
 2 State - HIMACHAL PRADESH (02)
 3 State - PUNJAB (03)          
 4 State - CHANDIGARH (04)      
 5 State - UTTARAKHAND (05)     
 6 State - HARYANA (06)         
 7 State - NCT OF DELHI (07)    
 8 State - RAJASTHAN (08)       
 9 State - UTTAR PRADESH (09)   
10 State - BIHAR (10)           
# ℹ 25 more rows

Code

mig_india<-mig_india%>%
  separate(area,into=c("delete","area"),sep=" - ")%>%
  separate(area,into=c("area","delete2"),sep="\\(")
mig_india <- mig_india %>% select(-c(delete,delete2))
mig_india%>%select(last_res)%>%distinct()

# A tibble: 35 × 1
   last_res        
   <chr>           
 1 Jammu & Kashmir 
 2 Himachal Pradesh
 3 Punjab          
 4 Chandigarh      
 5 Uttarakhand     
 6 Haryana         
 7 NCT of Delhi    
 8 Rajasthan       
 9 Uttar Pradesh   
10 Bihar           
# ℹ 25 more rows
…
